	{
        "version": 0,
        "totalAmount": "10000000000000000",
        "totalFee": 0,
        "reward": 0,
        "payloadHash":
                "ed14889723f24ecc54871d058d98ce91ff2f973192075c0155ba2b7b70ad2511",
        "timestamp": 0,
        "numberOfTransactions": 10,
        "payloadLength": 996985,
        "previousBlock": null,
        "generatorPublicKey":
                "d121d3abf5425fdc0f161d9ddb32f89b7750b4bdb0bff7d18b191d4b4bafa6d4",
        "transactions": [
				{
				    "amount": "142759982060",
				    "recipientId": "3022481002821754746L",
				    "senderId": "7878240535114445572L",
				    "senderPublicKey": "6caaef6873e61e39e413c9011d816a953b8169cc04d50eb5fce57f35ebc87786",
				    "timestamp": 1512691970,
				    "type": 0,
				    "fee": "0",
				    "recipientPublicKey": null,
				    "asset": {},
				    "signature": "75be75103e0ca3f4f5ad3b0a45a63204d59bf0ec59baf07895b89264bf9a1c239b399c92181c80e058c66ea8780ce3456b8a110155a395d9fb27449b8a38940d",
				    "id": "7313237428266252796"
				},
				{
				    "amount": "1153061393566",
				    "recipientId": "10609379708772874815L",
				    "senderId": "7878240535114445572L",
				    "senderPublicKey": "6caaef6873e61e39e413c9011d816a953b8169cc04d50eb5fce57f35ebc87786",
				    "timestamp": 1512691970,
				    "type": 0,
				    "fee": "0",
				    "recipientPublicKey": null,
				    "asset": {},
				    "signature": "bb66b994f045b6472812352358371f506436d84d3605f4fdc05de24a71d719426cbf1a6f1f703f467e39fdc861df6595856e73c06d334b926b9eb9d4bc82bb06",
				    "id": "18020017704304748709"
				},
				{
				    "amount": "400000000000",
				    "recipientId": "7878240535114445572L",
				    "senderId": "10609379708772874815L",
				    "senderPublicKey": "5e00ec481ae697c4ad18362a0dd3180762880f56a839c89b640f944b60cfffbe",
				    "timestamp": 1512691970,
				    "type": 0,
				    "fee": "0",
				    "recipientPublicKey": null,
				    "asset": {},
				    "signature": "aa369b044afdc8ae59305574844f240fc041928e4312de02fafd8163e54a0f49375743c382cbac55b84d4832026a757851e20903445ffd05829f031644748e0b",
				    "id": "18107175850688192910"
				},
				{
				    "amount": "400000000000000",
				    "recipientId": "10609379708772874815L",
				    "senderId": "3022481002821754746L",
				    "senderPublicKey": "f239284d1e3f4883d091bc88e9c7cd8fad4a41db7dd0dde58bbc3771b01f4ec8",
				    "timestamp": 1512691970,
				    "type": 0,
				    "fee": "0",
				    "recipientPublicKey": null,
				    "asset": {},
				    "signature": "893e999c52ba47591eaf246630324bb92523f01b41fe577bb29efd2d09942e7119ba259200c4608107c50a338428af5696c2743aa2b1f84b077a5180d205c20f",
				    "id": "14694549101985907767"
				},
				{
                        "type": 2,
                        "amount": 0,
                        "fee": 2500000000,
                        "timestamp": 70249715,
                        "recipientId": null,
                        "senderId": "3022481002821754746L",
                        "senderPublicKey":
                                "f239284d1e3f4883d091bc88e9c7cd8fad4a41db7dd0dde58bbc3771b01f4ec8",
                        "asset": {

                                "delegate": {
                                        "username": "genesis_1",
                                        "publicKey": "f239284d1e3f4883d091bc88e9c7cd8fad4a41db7dd0dde58bbc3771b01f4ec8"
                                }
                        },
                        "signature":"29e93bc093fe5164bb098525da3bb0cda482875838c69b47b409f37a313f911500a9cf06117588362db1d3bec589e5b6e2fb6a8e364f752f277bec999705560a",
                        "id":"10635694292827335945"
                },
                {
                        "type": 2,
                        "amount": 0,
                        "fee": 2500000000,
                        "timestamp": 70249906,
                        "recipientId": null,
                        "senderId": "10609379708772874815L",
                        "senderPublicKey":
                                "5e00ec481ae697c4ad18362a0dd3180762880f56a839c89b640f944b60cfffbe",
                        "asset": {
                                "delegate": {
                                        "username": "genesis_2",
                                        "publicKey": "5e00ec481ae697c4ad18362a0dd3180762880f56a839c89b640f944b60cfffbe"
                                }
                        },
                        "signature":"ba622c5858d3acd4c7e57a5650cd441a0c5a925411605658f9dc8ba7a58280d2dde9ea36f7ec165bd2da0a91cf20c76932dd2e2bb7ead353dd83295943346c03",
                        "id":"2895852919988030764"
                },
				{
                        "type": 2,
                        "amount": 0,
                        "fee": 2500000000,
                        "timestamp": 70250128,
                        "recipientId": null,
                        "senderId": "7878240535114445572L",
                        "senderPublicKey":
                                "6caaef6873e61e39e413c9011d816a953b8169cc04d50eb5fce57f35ebc87786",
                        "asset": {
                                "delegate": {
                                        "username": "genesis_3",
                                        "publicKey": "6caaef6873e61e39e413c9011d816a953b8169cc04d50eb5fce57f35ebc87786"
                                }
                        },
                        "signature":"acc8898494c6bb34dda7e80e832085b3d3951324bc1f442281f9c0339853a228cbda091812b3835d95f3bd4effe89e42040b76dfeb82d7232e2dade462ae250f",
                        "id":"49637266129510077"

                },
                {
                "type": 2,
                "amount": 0,
                "fee": 2500000000,
                "timestamp": 70255254,
                "recipientId": null,
                "senderId": "12256985891007870537L",
                "senderPublicKey":
                        "8015e3ba9c8614219b8a323a3270a15a342d48f5070b50b94bd5a643273b4fa5",
                "asset": {
                        "delegate": {
                                "username": "genesis_4",
                                "publicKey": "8015e3ba9c8614219b8a323a3270a15a342d48f5070b50b94bd5a643273b4fa5"
                        	}
                        },
                        "signature":"12772497e1a12557f767766acdec319004c15cccabebeb32dea7e22f6286791c8a92d883976ebe05f5da84c7972768aecf11ed823c78c788d25c0505687dec09",
                        "id":"3744625332690910165"
                },
                {
				    "amount": "0",
				    "recipientId": "9497756460036063923L",
				    "senderId": "12256985891007870537L",
				    "senderPublicKey": "8015e3ba9c8614219b8a323a3270a15a342d48f5070b50b94bd5a643273b4fa5",
				    "timestamp": 70250663,
				    "type": 3,
				    "fee": "100000000",
				    "asset": {
				        "votes": [
				            "+f239284d1e3f4883d091bc88e9c7cd8fad4a41db7dd0dde58bbc3771b01f4ec8",
				            "+5e00ec481ae697c4ad18362a0dd3180762880f56a839c89b640f944b60cfffbe",
				            "+6caaef6873e61e39e413c9011d816a953b8169cc04d50eb5fce57f35ebc87786"
				        ]
				    },
				    "signature":"d394d430213a8b7908aab4f971f93a4e51ca940d046f4447a18836de1d30985ccdf1a49f40796183a6fc9f4a9920fb5f01e6638e445ae04ce33c918514239e03",
				    "id":"11978155764253974970"
				},
				{
				    "amount": "0",
				    "recipientId": "14958840938682423559L",
				    "senderId": "3022481002821754746L",
				    "senderPublicKey": "f239284d1e3f4883d091bc88e9c7cd8fad4a41db7dd0dde58bbc3771b01f4ec8",
				    "timestamp": 70251080,
				    "type": 3,
				    "fee": "100000000",
				    "asset": {
				        "votes": [
				            "+8015e3ba9c8614219b8a323a3270a15a342d48f5070b50b94bd5a643273b4fa5",
				            "+5e00ec481ae697c4ad18362a0dd3180762880f56a839c89b640f944b60cfffbe",
				            "+6caaef6873e61e39e413c9011d816a953b8169cc04d50eb5fce57f35ebc87786"
				        ]
				    },
				    "signature":"1d523d3da02229d693f22737047fac1d57bb70b3fed0c3c2ea11a52c4f4b0c6f5fdfac1d2c546e0ced415aa72e8ad393551386097641245f7fa48624acc9ca00",
				    "id":"6737422542331302477"
				},
				{
				    "amount": "0",
				    "recipientId": "10609379708772874815L",
				    "senderId": "10609379708772874815L",
				    "senderPublicKey": "5e00ec481ae697c4ad18362a0dd3180762880f56a839c89b640f944b60cfffbe",
				    "timestamp": 70251334,
				    "type": 3,
				    "fee": "100000000",
				    "asset": {
				        "votes": [
				            "+f239284d1e3f4883d091bc88e9c7cd8fad4a41db7dd0dde58bbc3771b01f4ec8",
				            "+5e00ec481ae697c4ad18362a0dd3180762880f56a839c89b640f944b60cfffbe",
				            "+6caaef6873e61e39e413c9011d816a953b8169cc04d50eb5fce57f35ebc87786"
				        ]
				    },
				    "signature":"04a5e63b3010c88f1daf577d6b8fe6794e7c79bd302592649087e04a0cf1113af8fae07155ab205da7e3b086e43da58eda0c8a1e4336dda48ac41baa5a185a07",
				    "id":"13624928174096421893"
				}

		],
        "height": 1,
        "blockSignature":
                "ddd104c646379b72a118321c948f45fa5656373860e91c12dfc0c3caed9269808184458e6230a08b4d3d5b9fe5e5ce4a365a2fe68f35fbda6ecefb44fd4eb70d",
        "id": "13658550407518916215"
	}
